turn 0
----------------
Results for domain: TT
[92m  INFO [0m:: 19:14:36: root Evaluation.py:print_summary>169: 
[1m          # of dialogues  = 100[0m
[92m  INFO [0m:: 19:14:36: root Evaluation.py:print_summary>172: 
[1m          Average reward  = 6.63 +- 2.05[0m
[92m  INFO [0m:: 19:14:36: root Evaluation.py:print_summary>174: 
[1m          Average success = 71.00 +- 8.89[0m
[92m  INFO [0m:: 19:14:36: root Evaluation.py:print_summary>176: 
[1m          Average turns   = 7.57 +- 0.79[0m
turn 1
----------------
Results for domain: TT
[92m  INFO [0m:: 19:42:11: root Evaluation.py:print_summary>169: 
[1m          # of dialogues  = 100[0m
[92m  INFO [0m:: 19:42:11: root Evaluation.py:print_summary>172: 
[1m          Average reward  = 6.34 +- 2.18[0m
[92m  INFO [0m:: 19:42:11: root Evaluation.py:print_summary>174: 
[1m          Average success = 73.00 +- 8.70[0m
[92m  INFO [0m:: 19:42:11: root Evaluation.py:print_summary>176: 
[1m          Average turns   = 8.26 +- 0.93[0m
turn 2
----------------
Results for domain: TT
[92m  INFO [0m:: 20:10:57: root Evaluation.py:print_summary>169: 
[1m          # of dialogues  = 100[0m
[92m  INFO [0m:: 20:10:57: root Evaluation.py:print_summary>172: 
[1m          Average reward  = 5.98 +- 2.02[0m
[92m  INFO [0m:: 20:10:57: root Evaluation.py:print_summary>174: 
[1m          Average success = 74.00 +- 8.60[0m
[92m  INFO [0m:: 20:10:57: root Evaluation.py:print_summary>176: 
[1m          Average turns   = 8.82 +- 0.86[0m
turn 3
----------------
Results for domain: TT
[92m  INFO [0m:: 20:41:42: root Evaluation.py:print_summary>169: 
[1m          # of dialogues  = 100[0m
[92m  INFO [0m:: 20:41:42: root Evaluation.py:print_summary>172: 
[1m          Average reward  = 5.24 +- 2.11[0m
[92m  INFO [0m:: 20:41:42: root Evaluation.py:print_summary>174: 
[1m          Average success = 71.00 +- 8.89[0m
[92m  INFO [0m:: 20:41:42: root Evaluation.py:print_summary>176: 
[1m          Average turns   = 8.96 +- 0.89[0m
turn 4
----------------
Results for domain: TT
[92m  INFO [0m:: 21:11:12: root Evaluation.py:print_summary>169: 
[1m          # of dialogues  = 100[0m
[92m  INFO [0m:: 21:11:12: root Evaluation.py:print_summary>172: 
[1m          Average reward  = 7.91 +- 1.82[0m
[92m  INFO [0m:: 21:11:12: root Evaluation.py:print_summary>174: 
[1m          Average success = 80.00 +- 7.84[0m
[92m  INFO [0m:: 21:11:12: root Evaluation.py:print_summary>176: 
[1m          Average turns   = 8.09 +- 0.76[0m
turn 5
----------------
Results for domain: TT
[92m  INFO [0m:: 21:41:46: root Evaluation.py:print_summary>169: 
[1m          # of dialogues  = 100[0m
[92m  INFO [0m:: 21:41:46: root Evaluation.py:print_summary>172: 
[1m          Average reward  = 7.12 +- 1.98[0m
[92m  INFO [0m:: 21:41:46: root Evaluation.py:print_summary>174: 
[1m          Average success = 77.00 +- 8.25[0m
[92m  INFO [0m:: 21:41:46: root Evaluation.py:print_summary>176: 
[1m          Average turns   = 8.28 +- 1.00[0m
turn 6
----------------
Results for domain: TT
[92m  INFO [0m:: 22:16:50: root Evaluation.py:print_summary>169: 
[1m          # of dialogues  = 100[0m
[92m  INFO [0m:: 22:16:50: root Evaluation.py:print_summary>172: 
[1m          Average reward  = 6.26 +- 2.02[0m
[92m  INFO [0m:: 22:16:50: root Evaluation.py:print_summary>174: 
[1m          Average success = 73.00 +- 8.70[0m
[92m  INFO [0m:: 22:16:50: root Evaluation.py:print_summary>176: 
[1m          Average turns   = 8.34 +- 0.78[0m
turn 7
----------------
Results for domain: TT
[92m  INFO [0m:: 23:10:15: root Evaluation.py:print_summary>169: 
[1m          # of dialogues  = 100[0m
[92m  INFO [0m:: 23:10:15: root Evaluation.py:print_summary>172: 
[1m          Average reward  = 6.83 +- 2.01[0m
[92m  INFO [0m:: 23:10:15: root Evaluation.py:print_summary>174: 
[1m          Average success = 77.00 +- 8.25[0m
[92m  INFO [0m:: 23:10:15: root Evaluation.py:print_summary>176: 
[1m          Average turns   = 8.57 +- 0.88[0m
turn 8
----------------
Results for domain: TT
[92m  INFO [0m:: 23:43:29: root Evaluation.py:print_summary>169: 
[1m          # of dialogues  = 100[0m
[92m  INFO [0m:: 23:43:29: root Evaluation.py:print_summary>172: 
[1m          Average reward  = 9.13 +- 1.65[0m
[92m  INFO [0m:: 23:43:29: root Evaluation.py:print_summary>174: 
[1m          Average success = 83.00 +- 7.36[0m
[92m  INFO [0m:: 23:43:29: root Evaluation.py:print_summary>176: 
[1m          Average turns   = 7.47 +- 0.67[0m
turn 9
----------------
Results for domain: TT
[92m  INFO [0m:: 00:17:29: root Evaluation.py:print_summary>169: 
[1m          # of dialogues  = 100[0m
[92m  INFO [0m:: 00:17:29: root Evaluation.py:print_summary>172: 
[1m          Average reward  = 7.98 +- 1.71[0m
[92m  INFO [0m:: 00:17:29: root Evaluation.py:print_summary>174: 
[1m          Average success = 79.00 +- 7.98[0m
[92m  INFO [0m:: 00:17:29: root Evaluation.py:print_summary>176: 
[1m          Average turns   = 7.82 +- 0.72[0m
turn 10
----------------
Results for domain: TT
[92m  INFO [0m:: 00:54:40: root Evaluation.py:print_summary>169: 
[1m          # of dialogues  = 100[0m
[92m  INFO [0m:: 00:54:40: root Evaluation.py:print_summary>172: 
[1m          Average reward  = 8.63 +- 1.93[0m
[92m  INFO [0m:: 00:54:40: root Evaluation.py:print_summary>174: 
[1m          Average success = 83.00 +- 7.36[0m
[92m  INFO [0m:: 00:54:40: root Evaluation.py:print_summary>176: 
[1m          Average turns   = 7.97 +- 0.80[0m
