state_component, stat, schedule, label_scheme, N, result
goal.food, acc, 1, a, 732, 0.6844262
goal.food, l2, 1, a, 732, 0.6035836
goal.food, l2.binary, 1, a, 732, 0.6155491
goal.food, avgp, 1, a, 732, 0.6773296
goal.food, neglogp, 1, a, 732, 2.6813735
goal.food, mrr, 1, a, 732, 0.7049180
goal.food, update.acc, 1, a, 732, 0.3173653
goal.food, update.prec, 1, a, 732, 0.9380531
goal.food, roc.v1_eer, 1, a, 732, 0.3907104
goal.food, roc.v1_ca05, 1, a, 732, 0.0013661
goal.food, roc.v1_ca10, 1, a, 732, 0.0013661
goal.food, roc.v1_ca20, 1, a, 732, 0.5505464
goal.food, roc.v2_ca05, 1, a, 732, 0.0019960
goal.food, roc.v2_ca10, 1, a, 732, 0.0019960
goal.food, roc.v2_ca20, 1, a, 732, 0.0019960
goal.pricerange, acc, 1, a, 732, 0.9494536
goal.pricerange, l2, 1, a, 732, 0.1025123
goal.pricerange, l2.binary, 1, a, 732, 0.1038410
goal.pricerange, avgp, 1, a, 732, 0.9350531
goal.pricerange, neglogp, 1, a, 732, 0.4281970
goal.pricerange, mrr, 1, a, 732, 0.9624317
goal.pricerange, update.acc, 1, a, 732, 0.6826923
goal.pricerange, update.prec, 1, a, 732, 0.9466667
goal.pricerange, roc.v1_eer, 1, a, 732, 0.0997268
goal.pricerange, roc.v1_ca05, 1, a, 732, 0.9494536
goal.pricerange, roc.v1_ca10, 1, a, 732, 0.9494536
goal.pricerange, roc.v1_ca20, 1, a, 732, 0.9494536
goal.pricerange, roc.v2_ca05, 1, a, 732, 0.0014388
goal.pricerange, roc.v2_ca10, 1, a, 732, 0.0014388
goal.pricerange, roc.v2_ca20, 1, a, 732, 0.0014388
goal.name, acc, 1, a, 732, 1.0000000
goal.name, l2, 1, a, 732, 0.0000201
goal.name, l2.binary, 1, a, 732, 0.0000201
goal.name, avgp, 1, a, 732, 0.9996095
goal.name, neglogp, 1, a, 732, 0.0003957
goal.name, mrr, 1, a, 732, 1.0000000
goal.name, update.acc, 1, a, 732, -
goal.name, update.prec, 1, a, 732, -
goal.name, roc.v1_eer, 1, a, 732, 0.0000000
goal.name, roc.v1_ca05, 1, a, 732, 1.0000000
goal.name, roc.v1_ca10, 1, a, 732, 1.0000000
goal.name, roc.v1_ca20, 1, a, 732, 1.0000000
goal.name, roc.v2_ca05, 1, a, 732, -
goal.name, roc.v2_ca10, 1, a, 732, -
goal.name, roc.v2_ca20, 1, a, 732, -
goal.area, acc, 1, a, 732, 0.9180328
goal.area, l2, 1, a, 732, 0.1208039
goal.area, l2.binary, 1, a, 732, 0.1291691
goal.area, avgp, 1, a, 732, 0.9033896
goal.area, neglogp, 1, a, 732, 0.4517882
goal.area, mrr, 1, a, 732, 0.9392077
goal.area, update.acc, 1, a, 732, 0.5928571
goal.area, update.prec, 1, a, 732, 0.9540230
goal.area, roc.v1_eer, 1, a, 732, 0.0628415
goal.area, roc.v1_ca05, 1, a, 732, 0.8975410
goal.area, roc.v1_ca10, 1, a, 732, 0.9180328
goal.area, roc.v1_ca20, 1, a, 732, 0.9180328
goal.area, roc.v2_ca05, 1, a, 732, 0.0014881
goal.area, roc.v2_ca10, 1, a, 732, 0.0014881
goal.area, roc.v2_ca20, 1, a, 732, 0.7529762
goal.all, acc, 1, a, 2928, 0.8879781
goal.all, l2, 1, a, 2928, 0.2067300
goal.all, l2.binary, 1, a, 2928, 0.2121448
goal.all, avgp, 1, a, 2928, 0.8788455
goal.all, neglogp, 1, a, 2928, 0.8904386
goal.all, mrr, 1, a, 2928, 0.9016393
goal.all, update.acc, 1, a, 2928, 0.8673647
goal.all, update.prec, 1, a, 2928, 0.8823791
goal.all, roc.v1_eer, 1, a, 2928, 0.1588115
goal.all, roc.v1_ca05, 1, a, 2928, 0.0003415
goal.all, roc.v1_ca10, 1, a, 2928, 0.8732923
goal.all, roc.v1_ca20, 1, a, 2928, 0.8879781
goal.all, roc.v2_ca05, 1, a, 2928, 0.0003846
goal.all, roc.v2_ca10, 1, a, 2928, 0.0003846
goal.all, roc.v2_ca20, 1, a, 2928, 0.0003846
goal.joint, acc, 1, a, 732, 0.5737705
goal.joint, l2, 1, a, 732, 0.8246429
goal.joint, l2.binary, 1, a, 732, 0.8544652
goal.joint, avgp, 1, a, 732, 0.5586598
goal.joint, neglogp, 1, a, 732, 3.9217899
goal.joint, mrr, 1, a, 732, 0.5751366
goal.joint, update.acc, 1, a, 732, 0.3941176
goal.joint, update.prec, 1, a, 732, 0.8445378
goal.joint, roc.v1_eer, 1, a, 732, 0.4330601
goal.joint, roc.v1_ca05, 1, a, 732, 0.0000000
goal.joint, roc.v1_ca10, 1, a, 732, 0.0000000
goal.joint, roc.v1_ca20, 1, a, 732, 0.3374317
goal.joint, roc.v2_ca05, 1, a, 732, 0.0000000
goal.joint, roc.v2_ca10, 1, a, 732, 0.0000000
goal.joint, roc.v2_ca20, 1, a, 732, 0.0000000
goal.joint_independent, acc, 1, a, 732, 0.5737705
goal.joint_independent, l2, 1, a, 732, 0.7531371
goal.joint_independent, l2.binary, 1, a, 732, 0.8087805
goal.joint_independent, avgp, 1, a, 732, 0.5558881
goal.joint_independent, neglogp, 1, a, 732, 3.3852880
goal.joint_independent, mrr, 1, a, 732, 0.6236339
goal.joint_independent, update.acc, 1, a, 732, 0.3941176
goal.joint_independent, update.prec, 1, a, 732, 0.8445378
goal.joint_independent, roc.v1_eer, 1, a, 732, 0.3907104
goal.joint_independent, roc.v1_ca05, 1, a, 732, 0.0000000
goal.joint_independent, roc.v1_ca10, 1, a, 732, 0.1448087
goal.joint_independent, roc.v1_ca20, 1, a, 732, 0.3784153
goal.joint_independent, roc.v2_ca05, 1, a, 732, 0.0000000
goal.joint_independent, roc.v2_ca10, 1, a, 732, 0.0000000
goal.joint_independent, roc.v2_ca20, 1, a, 732, 0.0000000
requested.addr, acc, 1, a, 732, 0.9890710
requested.addr, l2, 1, a, 732, 0.0175320
requested.addr, l2.binary, 1, a, 732, 0.0175320
requested.addr, avgp, 1, a, 732, 0.9857448
requested.addr, neglogp, 1, a, 732, 0.0289319
requested.addr, mrr, 1, a, 732, 0.9945355
requested.addr, update.acc, 1, a, 732, 0.9717742
requested.addr, update.prec, 1, a, 732, 0.9958678
requested.addr, roc.v1_eer, 1, a, 732, 0.0081967
requested.addr, roc.v1_ca05, 1, a, 732, 0.9890710
requested.addr, roc.v1_ca10, 1, a, 732, 0.9890710
requested.addr, roc.v1_ca20, 1, a, 732, 0.9890710
requested.addr, roc.v2_ca05, 1, a, 732, 0.9930939
requested.addr, roc.v2_ca10, 1, a, 732, 0.9930939
requested.addr, roc.v2_ca20, 1, a, 732, 0.9930939
requested.area, acc, 1, a, 732, 0.9959016
requested.area, l2, 1, a, 732, 0.0057295
requested.area, l2.binary, 1, a, 732, 0.0057295
requested.area, avgp, 1, a, 732, 0.9942402
requested.area, neglogp, 1, a, 732, 0.0108469
requested.area, mrr, 1, a, 732, 0.9979508
requested.area, update.acc, 1, a, 732, 0.9727273
requested.area, update.prec, 1, a, 732, 1.0000000
requested.area, roc.v1_eer, 1, a, 732, 0.0027322
requested.area, roc.v1_ca05, 1, a, 732, 0.9959016
requested.area, roc.v1_ca10, 1, a, 732, 0.9959016
requested.area, roc.v1_ca20, 1, a, 732, 0.9959016
requested.area, roc.v2_ca05, 1, a, 732, 0.9629630
requested.area, roc.v2_ca10, 1, a, 732, 0.9629630
requested.area, roc.v2_ca20, 1, a, 732, 0.9629630
requested.food, acc, 1, a, 732, 0.9904372
requested.food, l2, 1, a, 732, 0.0092106
requested.food, l2.binary, 1, a, 732, 0.0092106
requested.food, avgp, 1, a, 732, 0.9912783
requested.food, neglogp, 1, a, 732, 0.0155088
requested.food, mrr, 1, a, 732, 0.9952186
requested.food, update.acc, 1, a, 732, 0.9586777
requested.food, update.prec, 1, a, 732, 0.9830508
requested.food, roc.v1_eer, 1, a, 732, 0.0027322
requested.food, roc.v1_ca05, 1, a, 732, 0.9904372
requested.food, roc.v1_ca10, 1, a, 732, 0.9904372
requested.food, roc.v1_ca20, 1, a, 732, 0.9904372
requested.food, roc.v2_ca05, 1, a, 732, 0.9682759
requested.food, roc.v2_ca10, 1, a, 732, 0.9682759
requested.food, roc.v2_ca20, 1, a, 732, 0.9986207
requested.phone, acc, 1, a, 732, 0.9808743
requested.phone, l2, 1, a, 732, 0.0254253
requested.phone, l2.binary, 1, a, 732, 0.0254253
requested.phone, avgp, 1, a, 732, 0.9726515
requested.phone, neglogp, 1, a, 732, 0.0386675
requested.phone, mrr, 1, a, 732, 0.9904372
requested.phone, update.acc, 1, a, 732, 0.9448819
requested.phone, update.prec, 1, a, 732, 1.0000000
requested.phone, roc.v1_eer, 1, a, 732, 0.0218579
requested.phone, roc.v1_ca05, 1, a, 732, 0.9808743
requested.phone, roc.v1_ca10, 1, a, 732, 0.9808743
requested.phone, roc.v1_ca20, 1, a, 732, 0.9808743
requested.phone, roc.v2_ca05, 1, a, 732, 0.9568245
requested.phone, roc.v2_ca10, 1, a, 732, 0.9610028
requested.phone, roc.v2_ca20, 1, a, 732, 0.9707521
requested.pricerange, acc, 1, a, 732, 0.9972678
requested.pricerange, l2, 1, a, 732, 0.0062868
requested.pricerange, l2.binary, 1, a, 732, 0.0062868
requested.pricerange, avgp, 1, a, 732, 0.9931326
requested.pricerange, neglogp, 1, a, 732, 0.0129595
requested.pricerange, mrr, 1, a, 732, 0.9986339
requested.pricerange, update.acc, 1, a, 732, 0.9827586
requested.pricerange, update.prec, 1, a, 732, 1.0000000
requested.pricerange, roc.v1_eer, 1, a, 732, 0.0054645
requested.pricerange, roc.v1_ca05, 1, a, 732, 0.9972678
requested.pricerange, roc.v1_ca10, 1, a, 732, 0.9972678
requested.pricerange, roc.v1_ca20, 1, a, 732, 0.9972678
requested.pricerange, roc.v2_ca05, 1, a, 732, 0.9643836
requested.pricerange, roc.v2_ca10, 1, a, 732, 0.9643836
requested.pricerange, roc.v2_ca20, 1, a, 732, 0.9643836
requested.postcode, acc, 1, a, 732, 0.9972678
requested.postcode, l2, 1, a, 732, 0.0061115
requested.postcode, l2.binary, 1, a, 732, 0.0061115
requested.postcode, avgp, 1, a, 732, 0.9934807
requested.postcode, neglogp, 1, a, 732, 0.0291300
requested.postcode, mrr, 1, a, 732, 0.9986339
requested.postcode, update.acc, 1, a, 732, 0.9924242
requested.postcode, update.prec, 1, a, 732, 0.9924242
requested.postcode, roc.v1_eer, 1, a, 732, 0.0068306
requested.postcode, roc.v1_ca05, 1, a, 732, 0.9972678
requested.postcode, roc.v1_ca10, 1, a, 732, 0.9972678
requested.postcode, roc.v1_ca20, 1, a, 732, 0.9972678
requested.postcode, roc.v2_ca05, 1, a, 732, 0.0013699
requested.postcode, roc.v2_ca10, 1, a, 732, 0.0013699
requested.postcode, roc.v2_ca20, 1, a, 732, 0.0013699
requested.signature, acc, 1, a, 732, 0.9986339
requested.signature, l2, 1, a, 732, 0.0027400
requested.signature, l2.binary, 1, a, 732, 0.0027400
requested.signature, avgp, 1, a, 732, 0.9983857
requested.signature, neglogp, 1, a, 732, 0.0128326
requested.signature, mrr, 1, a, 732, 0.9993169
requested.signature, update.acc, 1, a, 732, 0.9900000
requested.signature, update.prec, 1, a, 732, 0.9900000
requested.signature, roc.v1_eer, 1, a, 732, 0.0027322
requested.signature, roc.v1_ca05, 1, a, 732, 0.9986339
requested.signature, roc.v1_ca10, 1, a, 732, 0.9986339
requested.signature, roc.v1_ca20, 1, a, 732, 0.9986339
requested.signature, roc.v2_ca05, 1, a, 732, 0.0013680
requested.signature, roc.v2_ca10, 1, a, 732, 0.0013680
requested.signature, roc.v2_ca20, 1, a, 732, 0.0013680
requested.name, acc, 1, a, 732, 1.0000000
requested.name, l2, 1, a, 732, 0.0000000
requested.name, l2.binary, 1, a, 732, 0.0000000
requested.name, avgp, 1, a, 732, 1.0000000
requested.name, neglogp, 1, a, 732, 0.0000000
requested.name, mrr, 1, a, 732, 1.0000000
requested.name, update.acc, 1, a, 732, 1.0000000
requested.name, update.prec, 1, a, 732, 1.0000000
requested.name, roc.v1_eer, 1, a, 732, 0.0000000
requested.name, roc.v1_ca05, 1, a, 732, 1.0000000
requested.name, roc.v1_ca10, 1, a, 732, 1.0000000
requested.name, roc.v1_ca20, 1, a, 732, 1.0000000
requested.name, roc.v2_ca05, 1, a, 732, -
requested.name, roc.v2_ca10, 1, a, 732, -
requested.name, roc.v2_ca20, 1, a, 732, -
requested.all, acc, 1, a, 5856, 0.9936817
requested.all, l2, 1, a, 5856, 0.0091295
requested.all, l2.binary, 1, a, 5856, 0.0091295
requested.all, avgp, 1, a, 5856, 0.9911142
requested.all, neglogp, 1, a, 5856, 0.0186096
requested.all, mrr, 1, a, 5856, 0.9968408
requested.all, update.acc, 1, a, 5856, 0.9551935
requested.all, update.prec, 1, a, 5856, 0.9690083
requested.all, roc.v1_eer, 1, a, 5856, 0.0068306
requested.all, roc.v1_ca05, 1, a, 5856, 0.9936817
requested.all, roc.v1_ca10, 1, a, 5856, 0.9936817
requested.all, roc.v1_ca20, 1, a, 5856, 0.9936817
requested.all, roc.v2_ca05, 1, a, 5856, 0.0001719
requested.all, roc.v2_ca10, 1, a, 5856, 0.9678639
requested.all, roc.v2_ca20, 1, a, 5856, 0.9872830
method, acc, 1, a, 732, 0.6721311
method, l2, 1, a, 732, 0.5972452
method, l2.binary, 1, a, 732, 0.6083109
method, avgp, 1, a, 732, 0.6704530
method, neglogp, 1, a, 732, 2.2593822
method, mrr, 1, a, 732, 0.7297359
method, update.acc, 1, a, 732, 0.6210526
method, update.prec, 1, a, 732, 0.6781609
method, roc.v1_eer, 1, a, 732, 0.3661202
method, roc.v1_ca05, 1, a, 732, 0.0013661
method, roc.v1_ca10, 1, a, 732, 0.0013661
method, roc.v1_ca20, 1, a, 732, 0.5191257
method, roc.v2_ca05, 1, a, 732, 0.0020325
method, roc.v2_ca10, 1, a, 732, 0.0020325
method, roc.v2_ca20, 1, a, 732, 0.0020325
all, acc, 1, a, 9516, 0.9364229
all, l2, 1, a, 9516, 0.1151693
all, l2.binary, 1, a, 9516, 0.1176866
all, avgp, 1, a, 9516, 0.9319037
all, neglogp, 1, a, 9516, 0.4592318
all, mrr, 1, a, 9516, 0.9470015
all, update.acc, 1, a, 9516, 0.8607533
all, update.prec, 1, a, 9516, 0.8660147
all, roc.v1_eer, 1, a, 9516, 0.0866961
all, roc.v1_ca05, 1, a, 9516, 0.9226566
all, roc.v1_ca10, 1, a, 9516, 0.9364229
all, roc.v1_ca20, 1, a, 9516, 0.9364229
all, roc.v2_ca05, 1, a, 9516, 0.0001122
all, roc.v2_ca10, 1, a, 9516, 0.0001122
all, roc.v2_ca20, 1, a, 9516, 0.0001122
goal.food, acc, 1, b, 732, 0.4644809
goal.food, l2, 1, b, 732, 1.0428107
goal.food, l2.binary, 1, b, 732, 1.0553481
goal.food, avgp, 1, b, 732, 0.4577160
goal.food, neglogp, 1, b, 732, 4.7000840
goal.food, mrr, 1, b, 732, 0.5122951
goal.food, update.acc, 1, b, 732, 0.2132797
goal.food, update.prec, 1, b, 732, 0.9380531
goal.food, roc.v1_eer, 1, b, 732, 0.4658470
goal.food, roc.v1_ca05, 1, b, 732, 0.0000000
goal.food, roc.v1_ca10, 1, b, 732, 0.0000000
goal.food, roc.v1_ca20, 1, b, 732, 0.0000000
goal.food, roc.v2_ca05, 1, b, 732, 0.0000000
goal.food, roc.v2_ca10, 1, b, 732, 0.0000000
goal.food, roc.v2_ca20, 1, b, 732, 0.0000000
goal.pricerange, acc, 1, b, 732, 0.8224044
goal.pricerange, l2, 1, b, 732, 0.3493219
goal.pricerange, l2.binary, 1, b, 732, 0.3519606
goal.pricerange, avgp, 1, b, 732, 0.8116484
goal.pricerange, neglogp, 1, b, 732, 1.5707163
goal.pricerange, mrr, 1, b, 732, 0.8476776
goal.pricerange, update.acc, 1, b, 732, 0.3600000
goal.pricerange, update.prec, 1, b, 732, 0.9600000
goal.pricerange, roc.v1_eer, 1, b, 732, 0.2923497
goal.pricerange, roc.v1_ca05, 1, b, 732, 0.0000000
goal.pricerange, roc.v1_ca10, 1, b, 732, 0.0000000
goal.pricerange, roc.v1_ca20, 1, b, 732, 0.8224044
goal.pricerange, roc.v2_ca05, 1, b, 732, 0.0000000
goal.pricerange, roc.v2_ca10, 1, b, 732, 0.0000000
goal.pricerange, roc.v2_ca20, 1, b, 732, 0.0000000
goal.name, acc, 1, b, 732, 1.0000000
goal.name, l2, 1, b, 732, 0.0000201
goal.name, l2.binary, 1, b, 732, 0.0000201
goal.name, avgp, 1, b, 732, 0.9996095
goal.name, neglogp, 1, b, 732, 0.0003957
goal.name, mrr, 1, b, 732, 1.0000000
goal.name, update.acc, 1, b, 732, -
goal.name, update.prec, 1, b, 732, -
goal.name, roc.v1_eer, 1, b, 732, 0.0000000
goal.name, roc.v1_ca05, 1, b, 732, 1.0000000
goal.name, roc.v1_ca10, 1, b, 732, 1.0000000
goal.name, roc.v1_ca20, 1, b, 732, 1.0000000
goal.name, roc.v2_ca05, 1, b, 732, -
goal.name, roc.v2_ca10, 1, b, 732, -
goal.name, roc.v2_ca20, 1, b, 732, -
goal.area, acc, 1, b, 732, 0.8155738
goal.area, l2, 1, b, 732, 0.3208671
goal.area, l2.binary, 1, b, 732, 0.3312226
goal.area, avgp, 1, b, 732, 0.8033580
goal.area, neglogp, 1, b, 732, 1.2801187
goal.area, mrr, 1, b, 732, 0.8510929
goal.area, update.acc, 1, b, 732, 0.3824885
goal.area, update.prec, 1, b, 732, 0.9540230
goal.area, roc.v1_eer, 1, b, 732, 0.2390710
goal.area, roc.v1_ca05, 1, b, 732, 0.0000000
goal.area, roc.v1_ca10, 1, b, 732, 0.6079235
goal.area, roc.v1_ca20, 1, b, 732, 0.8155738
goal.area, roc.v2_ca05, 1, b, 732, 0.0000000
goal.area, roc.v2_ca10, 1, b, 732, 0.0000000
goal.area, roc.v2_ca20, 1, b, 732, 0.0000000
goal.all, acc, 1, b, 2928, 0.7756148
goal.all, l2, 1, b, 2928, 0.4282549
goal.all, l2.binary, 1, b, 2928, 0.4346378
goal.all, avgp, 1, b, 2928, 0.7680830
goal.all, neglogp, 1, b, 2928, 1.8878287
goal.all, mrr, 1, b, 2928, 0.8027664
goal.all, update.acc, 1, b, 2928, 0.7511093
goal.all, update.prec, 1, b, 2928, 0.8264536
goal.all, roc.v1_eer, 1, b, 2928, 0.3247951
goal.all, roc.v1_ca05, 1, b, 2928, 0.0000000
goal.all, roc.v1_ca10, 1, b, 2928, 0.0000000
goal.all, roc.v1_ca20, 1, b, 2928, 0.7568306
goal.all, roc.v2_ca05, 1, b, 2928, 0.0000000
goal.all, roc.v2_ca10, 1, b, 2928, 0.0000000
goal.all, roc.v2_ca20, 1, b, 2928, 0.0000000
goal.joint, acc, 1, b, 732, 0.3715847
goal.joint, l2, 1, b, 732, 1.2125826
goal.joint, l2.binary, 1, b, 732, 1.2497474
goal.joint, avgp, 1, b, 732, 0.3646900
goal.joint, neglogp, 1, b, 732, 5.6665126
goal.joint, mrr, 1, b, 732, 0.3831967
goal.joint, update.acc, 1, b, 732, 0.1621129
goal.joint, update.prec, 1, b, 732, 0.3739496
goal.joint, roc.v1_eer, 1, b, 732, 0.4822404
goal.joint, roc.v1_ca05, 1, b, 732, 0.0000000
goal.joint, roc.v1_ca10, 1, b, 732, 0.0000000
goal.joint, roc.v1_ca20, 1, b, 732, 0.0000000
goal.joint, roc.v2_ca05, 1, b, 732, 0.0000000
goal.joint, roc.v2_ca10, 1, b, 732, 0.0000000
goal.joint, roc.v2_ca20, 1, b, 732, 0.0000000
goal.joint_independent, acc, 1, b, 732, 0.3715847
goal.joint_independent, l2, 1, b, 732, 1.1555585
goal.joint_independent, l2.binary, 1, b, 732, 1.2420619
goal.joint_independent, avgp, 1, b, 732, 0.3546774
goal.joint_independent, neglogp, 1, b, 732, 5.5046987
goal.joint_independent, mrr, 1, b, 732, 0.4074454
goal.joint_independent, update.acc, 1, b, 732, 0.1621129
goal.joint_independent, update.prec, 1, b, 732, 0.3739496
goal.joint_independent, roc.v1_eer, 1, b, 732, 0.4562842
goal.joint_independent, roc.v1_ca05, 1, b, 732, 0.0000000
goal.joint_independent, roc.v1_ca10, 1, b, 732, 0.0000000
goal.joint_independent, roc.v1_ca20, 1, b, 732, 0.1147541
goal.joint_independent, roc.v2_ca05, 1, b, 732, 0.0000000
goal.joint_independent, roc.v2_ca10, 1, b, 732, 0.0000000
goal.joint_independent, roc.v2_ca20, 1, b, 732, 0.0000000
method, acc, 1, b, 732, 0.8142077
method, l2, 1, b, 732, 0.3371771
method, l2.binary, 1, b, 732, 0.3526341
method, avgp, 1, b, 732, 0.8004870
method, neglogp, 1, b, 732, 1.4336450
method, mrr, 1, b, 732, 0.8344718
method, update.acc, 1, b, 732, 0.7089716
method, update.prec, 1, b, 732, 0.9310345
method, roc.v1_eer, 1, b, 732, 0.2049180
method, roc.v1_ca05, 1, b, 732, 0.0013661
method, roc.v1_ca10, 1, b, 732, 0.6871585
method, roc.v1_ca20, 1, b, 732, 0.8142077
method, roc.v2_ca05, 1, b, 732, 0.0016779
method, roc.v2_ca10, 1, b, 732, 0.0016779
method, roc.v2_ca20, 1, b, 732, 0.0016779
all, acc, 1, b, 9516, 0.9127785
all, l2, 1, b, 9516, 0.1633256
all, l2.binary, 1, b, 9516, 0.1664786
all, avgp, 1, b, 9516, 0.9078256
all, neglogp, 1, b, 9516, 0.7026028
all, mrr, 1, b, 9516, 0.9246357
all, update.acc, 1, b, 9516, 0.8158388
all, update.prec, 1, b, 9516, 0.8513447
all, roc.v1_eer, 1, b, 9516, 0.1215847
all, roc.v1_ca05, 1, b, 9516, 0.0000000
all, roc.v1_ca10, 1, b, 9516, 0.9127785
all, roc.v1_ca20, 1, b, 9516, 0.9127785
all, roc.v2_ca05, 1, b, 9516, 0.0000000
all, roc.v2_ca10, 1, b, 9516, 0.0000000
all, roc.v2_ca20, 1, b, 9516, 0.0000000
goal.food, acc, 2, a, 586, 0.6211604
goal.food, l2, 2, a, 586, 0.7232478
goal.food, l2.binary, 2, a, 586, 0.7381945
goal.food, avgp, 2, a, 586, 0.6122957
goal.food, neglogp, 2, a, 586, 3.2079733
goal.food, mrr, 2, a, 586, 0.6467577
goal.food, update.acc, 2, a, 586, 0.3261538
goal.food, update.prec, 2, a, 586, 0.9380531
goal.food, roc.v1_eer, 2, a, 586, 0.4300341
goal.food, roc.v1_ca05, 2, a, 586, 0.0017065
goal.food, roc.v1_ca10, 2, a, 586, 0.0017065
goal.food, roc.v1_ca20, 2, a, 586, 0.0017065
goal.food, roc.v2_ca05, 2, a, 586, 0.0027473
goal.food, roc.v2_ca10, 2, a, 586, 0.0027473
goal.food, roc.v2_ca20, 2, a, 586, 0.0027473
goal.pricerange, acc, 2, a, 485, 0.9278351
goal.pricerange, l2, 2, a, 485, 0.1464722
goal.pricerange, l2.binary, 2, a, 485, 0.1484775
goal.pricerange, avgp, 2, a, 485, 0.9061008
goal.pricerange, neglogp, 2, a, 485, 0.6082877
goal.pricerange, mrr, 2, a, 485, 0.9474227
goal.pricerange, update.acc, 2, a, 485, 0.6960784
goal.pricerange, update.prec, 2, a, 485, 0.9466667
goal.pricerange, roc.v1_eer, 2, a, 485, 0.1360825
goal.pricerange, roc.v1_ca05, 2, a, 485, 0.8000000
goal.pricerange, roc.v1_ca10, 2, a, 485, 0.9278351
goal.pricerange, roc.v1_ca20, 2, a, 485, 0.9278351
goal.pricerange, roc.v2_ca05, 2, a, 485, 0.0022222
goal.pricerange, roc.v2_ca10, 2, a, 485, 0.0022222
goal.pricerange, roc.v2_ca20, 2, a, 485, 0.0022222
goal.name, acc, 2, a, 18, 1.0000000
goal.name, l2, 2, a, 18, 0.0008156
goal.name, l2.binary, 2, a, 18, 0.0008156
goal.name, avgp, 2, a, 18, 0.9841188
goal.name, neglogp, 2, a, 18, 0.0160906
goal.name, mrr, 2, a, 18, 1.0000000
goal.name, update.acc, 2, a, 18, -
goal.name, update.prec, 2, a, 18, -
goal.name, roc.v1_eer, 2, a, 18, 0.0000000
goal.name, roc.v1_ca05, 2, a, 18, 1.0000000
goal.name, roc.v1_ca10, 2, a, 18, 1.0000000
goal.name, roc.v1_ca20, 2, a, 18, 1.0000000
goal.name, roc.v2_ca05, 2, a, 18, -
goal.name, roc.v2_ca10, 2, a, 18, -
goal.name, roc.v2_ca20, 2, a, 18, -
goal.area, acc, 2, a, 645, 0.9085271
goal.area, l2, 2, a, 645, 0.1339976
goal.area, l2.binary, 2, a, 645, 0.1434911
goal.area, avgp, 2, a, 645, 0.8919089
goal.area, neglogp, 2, a, 645, 0.4984475
goal.area, mrr, 2, a, 645, 0.9325581
goal.area, update.acc, 2, a, 645, 0.5971223
goal.area, update.prec, 2, a, 645, 0.9540230
goal.area, roc.v1_eer, 2, a, 645, 0.0713178
goal.area, roc.v1_ca05, 2, a, 645, 0.8852713
goal.area, roc.v1_ca10, 2, a, 645, 0.9085271
goal.area, roc.v1_ca20, 2, a, 645, 0.9085271
goal.area, roc.v2_ca05, 2, a, 645, 0.0017065
goal.area, roc.v2_ca10, 2, a, 645, 0.0017065
goal.area, roc.v2_ca20, 2, a, 645, 0.7167235
goal.all, acc, 2, a, 1734, 0.8177624
goal.all, l2, 2, a, 1734, 0.3352395
goal.all, l2.binary, 2, a, 1734, 0.3443829
goal.all, avgp, 2, a, 1734, 0.8023411
goal.all, neglogp, 2, a, 1734, 1.4398386
goal.all, mrr, 2, a, 1734, 0.8408304
goal.all, update.acc, 2, a, 1734, 0.8129540
goal.all, update.prec, 2, a, 1734, 0.8320942
goal.all, roc.v1_eer, 2, a, 1734, 0.2572088
goal.all, roc.v1_ca05, 2, a, 1734, 0.0005767
goal.all, roc.v1_ca10, 2, a, 1734, 0.5991926
goal.all, roc.v1_ca20, 2, a, 1734, 0.8177624
goal.all, roc.v2_ca05, 2, a, 1734, 0.0007052
goal.all, roc.v2_ca10, 2, a, 1734, 0.0007052
goal.all, roc.v2_ca20, 2, a, 1734, 0.0007052
goal.joint, acc, 2, a, 721, 0.5686546
goal.joint, l2, 2, a, 721, 0.8344502
goal.joint, l2.binary, 2, a, 721, 0.8647275
goal.joint, avgp, 2, a, 721, 0.5533135
goal.joint, neglogp, 2, a, 721, 3.9688487
goal.joint, mrr, 2, a, 721, 0.5700416
goal.joint, update.acc, 2, a, 721, 0.3948919
goal.joint, update.prec, 2, a, 721, 0.8445378
goal.joint, roc.v1_eer, 2, a, 721, 0.4382802
goal.joint, roc.v1_ca05, 2, a, 721, 0.0000000
goal.joint, roc.v1_ca10, 2, a, 721, 0.0000000
goal.joint, roc.v1_ca20, 2, a, 721, 0.3287101
goal.joint, roc.v2_ca05, 2, a, 721, 0.0000000
goal.joint, roc.v2_ca10, 2, a, 721, 0.0000000
goal.joint, roc.v2_ca20, 2, a, 721, 0.0000000
goal.joint_independent, acc, 2, a, 721, 0.5686546
goal.joint_independent, l2, 2, a, 721, 0.7618534
goal.joint_independent, l2.binary, 2, a, 721, 0.8183458
goal.joint_independent, avgp, 2, a, 721, 0.5504995
goal.joint_independent, neglogp, 2, a, 721, 3.4241616
goal.joint_independent, mrr, 2, a, 721, 0.6192788
goal.joint_independent, update.acc, 2, a, 721, 0.3948919
goal.joint_independent, update.prec, 2, a, 721, 0.8445378
goal.joint_independent, roc.v1_eer, 2, a, 721, 0.3952843
goal.joint_independent, roc.v1_ca05, 2, a, 721, 0.0000000
goal.joint_independent, roc.v1_ca10, 2, a, 721, 0.1331484
goal.joint_independent, roc.v1_ca20, 2, a, 721, 0.3703190
goal.joint_independent, roc.v2_ca05, 2, a, 721, 0.0000000
goal.joint_independent, roc.v2_ca10, 2, a, 721, 0.0000000
goal.joint_independent, roc.v2_ca20, 2, a, 721, 0.0000000
requested.addr, acc, 2, a, 151, 0.9470199
requested.addr, l2, 2, a, 151, 0.0849897
requested.addr, l2.binary, 2, a, 151, 0.0849897
requested.addr, avgp, 2, a, 151, 0.9308954
requested.addr, neglogp, 2, a, 151, 0.1402525
requested.addr, mrr, 2, a, 151, 0.9735099
requested.addr, update.acc, 2, a, 151, 0.9263158
requested.addr, update.prec, 2, a, 151, 0.9670330
requested.addr, roc.v1_eer, 2, a, 151, 0.0397351
requested.addr, roc.v1_ca05, 2, a, 151, 0.9403974
requested.addr, roc.v1_ca10, 2, a, 151, 0.9470199
requested.addr, roc.v1_ca20, 2, a, 151, 0.9470199
requested.addr, roc.v2_ca05, 2, a, 151, 0.9650350
requested.addr, roc.v2_ca10, 2, a, 151, 0.9650350
requested.addr, roc.v2_ca20, 2, a, 151, 0.9650350
requested.area, acc, 2, a, 25, 0.8800000
requested.area, l2, 2, a, 25, 0.1508394
requested.area, l2.binary, 2, a, 25, 0.1508394
requested.area, avgp, 2, a, 25, 0.8716701
requested.area, neglogp, 2, a, 25, 0.2713772
requested.area, mrr, 2, a, 25, 0.9400000
requested.area, update.acc, 2, a, 25, 0.7692308
requested.area, update.prec, 2, a, 25, 0.9090909
requested.area, roc.v1_eer, 2, a, 25, 0.0800000
requested.area, roc.v1_ca05, 2, a, 25, 0.8800000
requested.area, roc.v1_ca10, 2, a, 25, 0.8800000
requested.area, roc.v1_ca20, 2, a, 25, 0.8800000
requested.area, roc.v2_ca05, 2, a, 25, 0.5000000
requested.area, roc.v2_ca10, 2, a, 25, 0.5000000
requested.area, roc.v2_ca20, 2, a, 25, 0.5000000
requested.food, acc, 2, a, 13, 0.5384615
requested.food, l2, 2, a, 13, 0.4563426
requested.food, l2.binary, 2, a, 13, 0.4563426
requested.food, avgp, 2, a, 13, 0.6615213
requested.food, neglogp, 2, a, 13, 0.6975666
requested.food, mrr, 2, a, 13, 0.7692308
requested.food, update.acc, 2, a, 13, 0.5384615
requested.food, update.prec, 2, a, 13, 0.5833333
requested.food, roc.v1_eer, 2, a, 13, 0.1538462
requested.food, roc.v1_ca05, 2, a, 13, 0.0769231
requested.food, roc.v1_ca10, 2, a, 13, 0.5384615
requested.food, roc.v1_ca20, 2, a, 13, 0.5384615
requested.food, roc.v2_ca05, 2, a, 13, 0.1428571
requested.food, roc.v2_ca10, 2, a, 13, 0.1428571
requested.food, roc.v2_ca20, 2, a, 13, 1.0000000
requested.phone, acc, 2, a, 93, 0.8494624
requested.phone, l2, 2, a, 93, 0.2001218
requested.phone, l2.binary, 2, a, 93, 0.2001218
requested.phone, avgp, 2, a, 93, 0.7847411
requested.phone, neglogp, 2, a, 93, 0.3043505
requested.phone, mrr, 2, a, 93, 0.9247312
requested.phone, update.acc, 2, a, 93, 0.8372093
requested.phone, update.prec, 2, a, 93, 0.8780488
requested.phone, roc.v1_eer, 2, a, 93, 0.1720430
requested.phone, roc.v1_ca05, 2, a, 93, 0.7419355
requested.phone, roc.v1_ca10, 2, a, 93, 0.8064516
requested.phone, roc.v1_ca20, 2, a, 93, 0.8494624
requested.phone, roc.v2_ca05, 2, a, 93, 0.6075949
requested.phone, roc.v2_ca10, 2, a, 93, 0.6455696
requested.phone, roc.v2_ca20, 2, a, 93, 0.7341772
requested.pricerange, acc, 2, a, 18, 0.8888889
requested.pricerange, l2, 2, a, 18, 0.2491262
requested.pricerange, l2.binary, 2, a, 18, 0.2491262
requested.pricerange, avgp, 2, a, 18, 0.7703206
requested.pricerange, neglogp, 2, a, 18, 0.4757097
requested.pricerange, mrr, 2, a, 18, 0.9444444
requested.pricerange, update.acc, 2, a, 18, 0.8000000
requested.pricerange, update.prec, 2, a, 18, 0.8000000
requested.pricerange, roc.v1_eer, 2, a, 18, 0.2222222
requested.pricerange, roc.v1_ca05, 2, a, 18, 0.0555556
requested.pricerange, roc.v1_ca10, 2, a, 18, 0.0555556
requested.pricerange, roc.v1_ca20, 2, a, 18, 0.8888889
requested.pricerange, roc.v2_ca05, 2, a, 18, 0.0625000
requested.pricerange, roc.v2_ca10, 2, a, 18, 0.0625000
requested.pricerange, roc.v2_ca20, 2, a, 18, 0.0625000
requested.postcode, acc, 2, a, 82, 0.9878049
requested.postcode, l2, 2, a, 82, 0.0301657
requested.postcode, l2.binary, 2, a, 82, 0.0301657
requested.postcode, avgp, 2, a, 82, 0.9539985
requested.postcode, neglogp, 2, a, 82, 0.1477174
requested.postcode, mrr, 2, a, 82, 0.9939024
requested.postcode, update.acc, 2, a, 82, 0.9696970
requested.postcode, update.prec, 2, a, 82, 0.9696970
requested.postcode, roc.v1_eer, 2, a, 82, 0.0243902
requested.postcode, roc.v1_ca05, 2, a, 82, 0.9878049
requested.postcode, roc.v1_ca10, 2, a, 82, 0.9878049
requested.postcode, roc.v1_ca20, 2, a, 82, 0.9878049
requested.postcode, roc.v2_ca05, 2, a, 82, 0.0123457
requested.postcode, roc.v2_ca10, 2, a, 82, 0.0123457
requested.postcode, roc.v2_ca20, 2, a, 82, 0.0123457
requested.signature, acc, 2, a, 12, 1.0000000
requested.signature, l2, 2, a, 12, 0.0004718
requested.signature, l2.binary, 2, a, 12, 0.0004718
requested.signature, avgp, 2, a, 12, 0.9848587
requested.signature, neglogp, 2, a, 12, 0.0152605
requested.signature, mrr, 2, a, 12, 1.0000000
requested.signature, update.acc, 2, a, 12, 1.0000000
requested.signature, update.prec, 2, a, 12, 1.0000000
requested.signature, roc.v1_eer, 2, a, 12, 0.0000000
requested.signature, roc.v1_ca05, 2, a, 12, 1.0000000
requested.signature, roc.v1_ca10, 2, a, 12, 1.0000000
requested.signature, roc.v1_ca20, 2, a, 12, 1.0000000
requested.signature, roc.v2_ca05, 2, a, 12, -
requested.signature, roc.v2_ca10, 2, a, 12, -
requested.signature, roc.v2_ca20, 2, a, 12, -
requested.name, acc, 2, a, 0, -
requested.name, l2, 2, a, 0, -
requested.name, l2.binary, 2, a, 0, -
requested.name, avgp, 2, a, 0, -
requested.name, neglogp, 2, a, 0, -
requested.name, mrr, 2, a, 0, -
requested.name, update.acc, 2, a, 0, -
requested.name, update.prec, 2, a, 0, -
requested.name, roc.v1_eer, 2, a, 0, -
requested.name, roc.v1_ca05, 2, a, 0, -
requested.name, roc.v1_ca10, 2, a, 0, -
requested.name, roc.v1_ca20, 2, a, 0, -
requested.name, roc.v2_ca05, 2, a, 0, -
requested.name, roc.v2_ca10, 2, a, 0, -
requested.name, roc.v2_ca20, 2, a, 0, -
requested.all, acc, 2, a, 394, 0.9137056
requested.all, l2, 2, a, 394, 0.1221110
requested.all, l2.binary, 2, a, 394, 0.1221110
requested.all, avgp, 2, a, 394, 0.8828670
requested.all, neglogp, 2, a, 394, 0.2187671
requested.all, mrr, 2, a, 394, 0.9568528
requested.all, update.acc, 2, a, 394, 0.9128440
requested.all, update.prec, 2, a, 394, 0.8963964
requested.all, roc.v1_eer, 2, a, 394, 0.0913706
requested.all, roc.v1_ca05, 2, a, 394, 0.8857868
requested.all, roc.v1_ca10, 2, a, 394, 0.9137056
requested.all, roc.v1_ca20, 2, a, 394, 0.9137056
requested.all, roc.v2_ca05, 2, a, 394, 0.6055556
requested.all, roc.v2_ca10, 2, a, 394, 0.7111111
requested.all, roc.v2_ca20, 2, a, 394, 0.8055556
method, acc, 2, a, 721, 0.6823856
method, l2, 2, a, 721, 0.5758440
method, l2.binary, 2, a, 721, 0.5870784
method, avgp, 2, a, 721, 0.6806818
method, neglogp, 2, a, 721, 2.1533343
method, mrr, 2, a, 721, 0.7408692
method, update.acc, 2, a, 721, 0.6395664
method, update.prec, 2, a, 721, 0.6781609
method, roc.v1_eer, 2, a, 721, 0.3467406
method, roc.v1_ca05, 2, a, 721, 0.0013870
method, roc.v1_ca10, 2, a, 721, 0.0013870
method, roc.v1_ca20, 2, a, 721, 0.5464632
method, roc.v2_ca05, 2, a, 721, 0.0020325
method, roc.v2_ca10, 2, a, 721, 0.0020325
method, roc.v2_ca20, 2, a, 721, 0.0020325
all, acc, 2, a, 2849, 0.7967708
all, l2, 2, a, 2849, 0.3666552
all, l2.binary, 2, a, 2849, 0.3750633
all, avgp, 2, a, 2849, 0.7826889
all, neglogp, 2, a, 2849, 1.4515368
all, mrr, 2, a, 2849, 0.8315783
all, update.acc, 2, a, 2849, 0.7924872
all, update.prec, 2, a, 2849, 0.7974312
all, roc.v1_eer, 2, a, 2849, 0.2702703
all, roc.v1_ca05, 2, a, 2849, 0.0003510
all, roc.v1_ca10, 2, a, 2849, 0.4805195
all, roc.v1_ca20, 2, a, 2849, 0.7953668
all, roc.v2_ca05, 2, a, 2849, 0.0004405
all, roc.v2_ca10, 2, a, 2849, 0.0004405
all, roc.v2_ca20, 2, a, 2849, 0.0004405
goal.food, acc, 2, b, 586, 0.5529010
goal.food, l2, 2, b, 586, 0.8589376
goal.food, l2.binary, 2, b, 586, 0.8745987
goal.food, avgp, 2, b, 586, 0.5444507
goal.food, neglogp, 2, b, 586, 3.8278452
goal.food, mrr, 2, b, 586, 0.6126280
goal.food, update.acc, 2, b, 586, 0.2888283
goal.food, update.prec, 2, b, 586, 0.9380531
goal.food, roc.v1_eer, 2, b, 586, 0.5511945
goal.food, roc.v1_ca05, 2, b, 586, 0.0017065
goal.food, roc.v1_ca10, 2, b, 586, 0.0017065
goal.food, roc.v1_ca20, 2, b, 586, 0.0017065
goal.food, roc.v2_ca05, 2, b, 586, 0.0030864
goal.food, roc.v2_ca10, 2, b, 586, 0.0030864
goal.food, roc.v2_ca20, 2, b, 586, 0.0030864
goal.pricerange, acc, 2, b, 485, 0.8762887
goal.pricerange, l2, 2, b, 485, 0.2385641
goal.pricerange, l2.binary, 2, b, 485, 0.2425467
goal.pricerange, avgp, 2, b, 485, 0.8600549
goal.pricerange, neglogp, 2, b, 485, 1.0413207
goal.pricerange, mrr, 2, b, 485, 0.9144330
goal.pricerange, update.acc, 2, b, 485, 0.5538462
goal.pricerange, update.prec, 2, b, 485, 0.9600000
goal.pricerange, roc.v1_eer, 2, b, 485, 0.2103093
goal.pricerange, roc.v1_ca05, 2, b, 485, 0.0020619
goal.pricerange, roc.v1_ca10, 2, b, 485, 0.7690722
goal.pricerange, roc.v1_ca20, 2, b, 485, 0.8762887
goal.pricerange, roc.v2_ca05, 2, b, 485, 0.0023529
goal.pricerange, roc.v2_ca10, 2, b, 485, 0.0023529
goal.pricerange, roc.v2_ca20, 2, b, 485, 0.0023529
goal.name, acc, 2, b, 18, 1.0000000
goal.name, l2, 2, b, 18, 0.0008156
goal.name, l2.binary, 2, b, 18, 0.0008156
goal.name, avgp, 2, b, 18, 0.9841188
goal.name, neglogp, 2, b, 18, 0.0160906
goal.name, mrr, 2, b, 18, 1.0000000
goal.name, update.acc, 2, b, 18, -
goal.name, update.prec, 2, b, 18, -
goal.name, roc.v1_eer, 2, b, 18, 0.0000000
goal.name, roc.v1_ca05, 2, b, 18, 1.0000000
goal.name, roc.v1_ca10, 2, b, 18, 1.0000000
goal.name, roc.v1_ca20, 2, b, 18, 1.0000000
goal.name, roc.v2_ca05, 2, b, 18, -
goal.name, roc.v2_ca10, 2, b, 18, -
goal.name, roc.v2_ca20, 2, b, 18, -
goal.area, acc, 2, b, 645, 0.8604651
goal.area, l2, 2, b, 645, 0.2246120
goal.area, l2.binary, 2, b, 645, 0.2363642
goal.area, avgp, 2, b, 645, 0.8466016
goal.area, neglogp, 2, b, 645, 0.8102040
goal.area, mrr, 2, b, 645, 0.9007752
goal.area, update.acc, 2, b, 645, 0.4825581
goal.area, update.prec, 2, b, 645, 0.9540230
goal.area, roc.v1_eer, 2, b, 645, 0.1410853
goal.area, roc.v1_ca05, 2, b, 645, 0.6744186
goal.area, roc.v1_ca10, 2, b, 645, 0.8372093
goal.area, roc.v1_ca20, 2, b, 645, 0.8604651
goal.area, roc.v2_ca05, 2, b, 645, 0.0018018
goal.area, roc.v2_ca10, 2, b, 645, 0.0018018
goal.area, roc.v2_ca20, 2, b, 645, 0.4738739
goal.all, acc, 2, b, 1734, 0.7623991
goal.all, l2, 2, b, 1734, 0.4405597
goal.all, l2.binary, 2, b, 1734, 0.4513377
goal.all, avgp, 2, b, 1734, 0.7496811
goal.all, neglogp, 2, b, 1734, 1.8864066
goal.all, mrr, 2, b, 1734, 0.8082468
goal.all, update.acc, 2, b, 1734, 0.7542067
goal.all, update.prec, 2, b, 1734, 0.7775713
goal.all, roc.v1_eer, 2, b, 1734, 0.3194925
goal.all, roc.v1_ca05, 2, b, 1734, 0.0005767
goal.all, roc.v1_ca10, 2, b, 1734, 0.0005767
goal.all, roc.v1_ca20, 2, b, 1734, 0.7306805
goal.all, roc.v2_ca05, 2, b, 1734, 0.0007564
goal.all, roc.v2_ca10, 2, b, 1734, 0.0007564
goal.all, roc.v2_ca20, 2, b, 1734, 0.0007564
goal.joint, acc, 2, b, 721, 0.3772538
goal.joint, l2, 2, b, 721, 1.2005693
goal.joint, l2.binary, 2, b, 721, 1.2383011
goal.joint, avgp, 2, b, 721, 0.3702539
goal.joint, neglogp, 2, b, 721, 5.6124459
goal.joint, mrr, 2, b, 721, 0.3890430
goal.joint, update.acc, 2, b, 721, 0.1654275
goal.joint, update.prec, 2, b, 721, 0.3739496
goal.joint, roc.v1_eer, 2, b, 721, 0.4674064
goal.joint, roc.v1_ca05, 2, b, 721, 0.0000000
goal.joint, roc.v1_ca10, 2, b, 721, 0.0000000
goal.joint, roc.v1_ca20, 2, b, 721, 0.0000000
goal.joint, roc.v2_ca05, 2, b, 721, 0.0000000
goal.joint, roc.v2_ca10, 2, b, 721, 0.0000000
goal.joint, roc.v2_ca20, 2, b, 721, 0.0000000
goal.joint_independent, acc, 2, b, 721, 0.3772538
goal.joint_independent, l2, 2, b, 721, 1.1426752
goal.joint_independent, l2.binary, 2, b, 721, 1.2304983
goal.joint_independent, avgp, 2, b, 721, 0.3600886
goal.joint_independent, neglogp, 2, b, 721, 5.4481633
goal.joint_independent, mrr, 2, b, 721, 0.4136616
goal.joint_independent, update.acc, 2, b, 721, 0.1654275
goal.joint_independent, update.prec, 2, b, 721, 0.3739496
goal.joint_independent, roc.v1_eer, 2, b, 721, 0.4493759
goal.joint_independent, roc.v1_ca05, 2, b, 721, 0.0000000
goal.joint_independent, roc.v1_ca10, 2, b, 721, 0.0000000
goal.joint_independent, roc.v1_ca20, 2, b, 721, 0.1206657
goal.joint_independent, roc.v2_ca05, 2, b, 721, 0.0000000
goal.joint_independent, roc.v2_ca10, 2, b, 721, 0.0000000
goal.joint_independent, roc.v2_ca20, 2, b, 721, 0.0000000
method, acc, 2, b, 721, 0.8266297
method, l2, 2, b, 721, 0.3118081
method, l2.binary, 2, b, 721, 0.3275010
method, avgp, 2, b, 721, 0.8126997
method, neglogp, 2, b, 721, 1.3149992
method, mrr, 2, b, 721, 0.8472030
method, update.acc, 2, b, 721, 0.7264574
method, update.prec, 2, b, 721, 0.9310345
method, roc.v1_eer, 2, b, 721, 0.1886269
method, roc.v1_ca05, 2, b, 721, 0.0013870
method, roc.v1_ca10, 2, b, 721, 0.7406380
method, roc.v1_ca20, 2, b, 721, 0.8266297
method, roc.v2_ca05, 2, b, 721, 0.0016779
method, roc.v2_ca10, 2, b, 721, 0.0016779
method, roc.v2_ca20, 2, b, 721, 0.0016779
all, acc, 2, b, 2849, 0.7995788
all, l2, 2, b, 2849, 0.3639367
all, l2.binary, 2, b, 2849, 0.3744681
all, avgp, 2, b, 2849, 0.7840481
all, neglogp, 2, b, 2849, 1.5111750
all, mrr, 2, b, 2849, 0.8386568
all, update.acc, 2, b, 2849, 0.7955620
all, update.prec, 2, b, 2849, 0.8025688
all, roc.v1_eer, 2, b, 2849, 0.2597403
all, roc.v1_ca05, 2, b, 2849, 0.0003510
all, roc.v1_ca10, 2, b, 2849, 0.5057915
all, roc.v1_ca20, 2, b, 2849, 0.7988768
all, roc.v2_ca05, 2, b, 2849, 0.0004390
all, roc.v2_ca10, 2, b, 2849, 0.0004390
all, roc.v2_ca20, 2, b, 2849, 0.0004390
basic,total_wall_time,,,,0.91921210289
basic,sessions,,,,100
basic,turns,,,,732
basic,wall_time_per_turn,,,,0.00125575423892
basic,dataset,,,,dstc2_data
