nu=5
turn 0
---------------
Results for domain: TT
[92m  INFO [0m:: 01:07:52: root Evaluation.py:print_summary>169:
[1m          # of dialogues  = 100[0m
[92m  INFO [0m:: 01:07:52: root Evaluation.py:print_summary>172:
[1m          Average reward  = -0.05 +- 1.85[0m
[92m  INFO [0m:: 01:07:52: root Evaluation.py:print_summary>174:
[1m          Average success = 30.00 +- 8.98[0m
[92m  INFO [0m:: 01:07:52: root Evaluation.py:print_summary>176:
[1m          Average turns   = 6.05 +- 0.39[0m
turn 1
----------------
Results for domain: TT
[92m  INFO [0m:: 01:08:58: root Evaluation.py:print_summary>169:
[1m          # of dialogues  = 100[0m
[92m  INFO [0m:: 01:08:58: root Evaluation.py:print_summary>172:
[1m          Average reward  = 0.88 +- 1.91[0m
[92m  INFO [0m:: 01:08:58: root Evaluation.py:print_summary>174:
[1m          Average success = 36.00 +- 9.41[0m
[92m  INFO [0m:: 01:08:58: root Evaluation.py:print_summary>176:
[1m          Average turns   = 6.32 +- 0.57[0m
turn 2
---------------
Results for domain: TT
[92m  INFO [0m:: 01:10:08: root Evaluation.py:print_summary>169:
[1m          # of dialogues  = 100[0m
[92m  INFO [0m:: 01:10:08: root Evaluation.py:print_summary>172:
[1m          Average reward  = -0.13 +- 1.89[0m
[92m  INFO [0m:: 01:10:08: root Evaluation.py:print_summary>174:
[1m          Average success = 32.00 +- 9.14[0m
[92m  INFO [0m:: 01:10:08: root Evaluation.py:print_summary>176:
[1m          Average turns   = 6.53 +- 0.53[0m
turn 3
---------------
Results for domain: TT
[92m  INFO [0m:: 01:11:13: root Evaluation.py:print_summary>169:
[1m          # of dialogues  = 100[0m
[92m  INFO [0m:: 01:11:13: root Evaluation.py:print_summary>172:
[1m          Average reward  = -0.10 +- 1.84[0m
[92m  INFO [0m:: 01:11:13: root Evaluation.py:print_summary>174:
[1m          Average success = 30.00 +- 8.98[0m
[92m  INFO [0m:: 01:11:13: root Evaluation.py:print_summary>176:
[1m          Average turns   = 6.10 +- 0.36[0m
turn 4
----------------
Results for domain: TT
[92m  INFO [0m:: 01:12:21: root Evaluation.py:print_summary>169:
[1m          # of dialogues  = 100[0m
[92m  INFO [0m:: 01:12:21: root Evaluation.py:print_summary>172:
[1m          Average reward  = 2.16 +- 2.02[0m
[92m  INFO [0m:: 01:12:21: root Evaluation.py:print_summary>174:
[1m          Average success = 39.00 +- 9.56[0m
[92m  INFO [0m:: 01:12:21: root Evaluation.py:print_summary>176:
[1m          Average turns   = 5.64 +- 0.55[0m
turn 5
---------------
Results for domain: TT
[92m  INFO [0m:: 01:13:23: root Evaluation.py:print_summary>169:
[1m          # of dialogues  = 100[0m
[92m  INFO [0m:: 01:13:23: root Evaluation.py:print_summary>172:
[1m          Average reward  = -0.28 +- 1.84[0m
[92m  INFO [0m:: 01:13:23: root Evaluation.py:print_summary>174:
[1m          Average success = 29.00 +- 8.89[0m
[92m  INFO [0m:: 01:13:23: root Evaluation.py:print_summary>176:
[1m          Average turns   = 6.08 +- 0.49[0m
turn 6
---------------
Results for domain: TT
[92m  INFO [0m:: 01:14:29: root Evaluation.py:print_summary>169:
[1m          # of dialogues  = 100[0m
[92m  INFO [0m:: 01:14:29: root Evaluation.py:print_summary>172:
[1m          Average reward  = -1.35 +- 1.86[0m
[92m  INFO [0m:: 01:14:29: root Evaluation.py:print_summary>174:
[1m          Average success = 24.00 +- 8.37[0m
[92m  INFO [0m:: 01:14:29: root Evaluation.py:print_summary>176:
[1m          Average turns   = 6.15 +- 0.77[0m
turn 7
---------------
Results for domain: TT
[92m  INFO [0m:: 01:15:32: root Evaluation.py:print_summary>169:
[1m          # of dialogues  = 100[0m
[92m  INFO [0m:: 01:15:32: root Evaluation.py:print_summary>172:
[1m          Average reward  = -0.65 +- 1.95[0m
[92m  INFO [0m:: 01:15:32: root Evaluation.py:print_summary>174:
[1m          Average success = 29.00 +- 8.89[0m
[92m  INFO [0m:: 01:15:32: root Evaluation.py:print_summary>176:
[1m          Average turns   = 6.45 +- 0.65[0m
turn 8
----------------
Results for domain: TT
[92m  INFO [0m:: 01:16:33: root Evaluation.py:print_summary>169:
[1m          # of dialogues  = 100[0m
[92m  INFO [0m:: 01:16:33: root Evaluation.py:print_summary>172:
[1m          Average reward  = 1.75 +- 2.05[0m
[92m  INFO [0m:: 01:16:33: root Evaluation.py:print_summary>174:
[1m          Average success = 38.00 +- 9.51[0m
[92m  INFO [0m:: 01:16:33: root Evaluation.py:print_summary>176:
[1m          Average turns   = 5.85 +- 0.57[0m
turn 9
----------------
Results for domain: TT
[92m  INFO [0m:: 01:17:33: root Evaluation.py:print_summary>169:
[1m          # of dialogues  = 100[0m
[92m  INFO [0m:: 01:17:33: root Evaluation.py:print_summary>172:
[1m          Average reward  = 2.46 +- 2.05[0m
[92m  INFO [0m:: 01:17:33: root Evaluation.py:print_summary>174:
[1m          Average success = 41.00 +- 9.64[0m
[92m  INFO [0m:: 01:17:33: root Evaluation.py:print_summary>176:
[1m          Average turns   = 5.74 +- 0.50[0m
turn 10
---------------
Results for domain: TT
[92m  INFO [0m:: 01:18:40: root Evaluation.py:print_summary>169:
[1m          # of dialogues  = 100[0m
[92m  INFO [0m:: 01:18:40: root Evaluation.py:print_summary>172:
[1m          Average reward  = -0.24 +- 1.89[0m
[92m  INFO [0m:: 01:18:40: root Evaluation.py:print_summary>174:
[1m          Average success = 29.00 +- 8.89[0m
[92m  INFO [0m:: 01:18:40: root Evaluation.py:print_summary>176:
[1m          Average turns   = 6.04 +- 0.56[0m
